﻿{
  "ServiceId": "GeneralService.PolicyInforceReport",
  "Name": "[Sample] Report Policy Inforce",
  "Description": "This is a sample general service plugin project. This plugin will generate inforce policies as an excel file",
  "Author": "sdf",
  "ExecuteFileName": "GeneralService.PolicyInforceReport.dll",
  "PluginSettings": [
    {
      "Key": "MailDestination",
      "Value": "septian.dwi@ciptadrasoft.com"
    },
    {
      "Key": "EnableMailNotification",
      "Value": "true"
    }
  ]
}
